^C:\Users\User\Documents\CocosProjects\SpaceInvaders\proj.win32\SpaceInvaders.vcxproj
C:\Users\User\Documents\CocosProjects\SpaceInvaders\proj.win32\Debug.win32\SpaceInvaders.lib
C:\Users\User\Documents\CocosProjects\SpaceInvaders\proj.win32\Debug.win32\SpaceInvaders.exp
^SpaceInvaders
C:\Users\User\Documents\CocosProjects\SpaceInvaders\proj.win32\SpaceInvaders.cab
