^C:\USERS\USER\DOCUMENTS\COCOSPROJECTS\SPACEINVADERS\COCOS2D\COCOS\EDITOR-SUPPORT\SPINE\PROJ.WIN32\DEBUG.WIN32\ANIMATION.OBJ|C:\USERS\USER\DOCUMENTS\COCOSPROJECTS\SPACEINVADERS\COCOS2D\COCOS\EDITOR-SUPPORT\SPINE\PROJ.WIN32\DEBUG.WIN32\ANIMATIONSTATE.OBJ|C:\USERS\USER\DOCUMENTS\COCOSPROJECTS\SPACEINVADERS\COCOS2D\COCOS\EDITOR-SUPPORT\SPINE\PROJ.WIN32\DEBUG.WIN32\ANIMATIONSTATEDATA.OBJ|C:\USERS\USER\DOCUMENTS\COCOSPROJECTS\SPACEINVADERS\COCOS2D\COCOS\EDITOR-SUPPORT\SPINE\PROJ.WIN32\DEBUG.WIN32\ATLAS.OBJ|C:\USERS\USER\DOCUMENTS\COCOSPROJECTS\SPACEINVADERS\COCOS2D\COCOS\EDITOR-SUPPORT\SPINE\PROJ.WIN32\DEBUG.WIN32\ATLASATTACHMENTLOADER.OBJ|C:\USERS\USER\DOCUMENTS\COCOSPROJECTS\SPACEINVADERS\COCOS2D\COCOS\EDITOR-SUPPORT\SPINE\PROJ.WIN32\DEBUG.WIN32\ATTACHMENT.OBJ|C:\USERS\USER\DOCUMENTS\COCOSPROJECTS\SPACEINVADERS\COCOS2D\COCOS\EDITOR-SUPPORT\SPINE\PROJ.WIN32\DEBUG.WIN32\ATTACHMENTLOADER.OBJ|C:\USERS\USER\DOCUMENTS\COCOSPROJECTS\SPACEINVADERS\COCOS2D\COCOS\EDITOR-SUPPORT\SPINE\PROJ.WIN32\DEBUG.WIN32\ATTACHMENTVERTICES.OBJ|C:\USERS\USER\DOCUMENTS\COCOSPROJECTS\SPACEINVADERS\COCOS2D\COCOS\EDITOR-SUPPORT\SPINE\PROJ.WIN32\DEBUG.WIN32\BONE.OBJ|C:\USERS\USER\DOCUMENTS\COCOSPROJECTS\SPACEINVADERS\COCOS2D\COCOS\EDITOR-SUPPORT\SPINE\PROJ.WIN32\DEBUG.WIN32\BONEDATA.OBJ|C:\USERS\USER\DOCUMENTS\COCOSPROJECTS\SPACEINVADERS\COCOS2D\COCOS\EDITOR-SUPPORT\SPINE\PROJ.WIN32\DEBUG.WIN32\BOUNDINGBOXATTACHMENT.OBJ|C:\USERS\USER\DOCUMENTS\COCOSPROJECTS\SPACEINVADERS\COCOS2D\COCOS\EDITOR-SUPPORT\SPINE\PROJ.WIN32\DEBUG.WIN32\COCOS2DATTACHMENTLOADER.OBJ|C:\USERS\USER\DOCUMENTS\COCOSPROJECTS\SPACEINVADERS\COCOS2D\COCOS\EDITOR-SUPPORT\SPINE\PROJ.WIN32\DEBUG.WIN32\EVENT.OBJ|C:\USERS\USER\DOCUMENTS\COCOSPROJECTS\SPACEINVADERS\COCOS2D\COCOS\EDITOR-SUPPORT\SPINE\PROJ.WIN32\DEBUG.WIN32\EVENTDATA.OBJ|C:\USERS\USER\DOCUMENTS\COCOSPROJECTS\SPACEINVADERS\COCOS2D\COCOS\EDITOR-SUPPORT\SPINE\PROJ.WIN32\DEBUG.WIN32\EXTENSION.OBJ|C:\USERS\USER\DOCUMENTS\COCOSPROJECTS\SPACEINVADERS\COCOS2D\COCOS\EDITOR-SUPPORT\SPINE\PROJ.WIN32\DEBUG.WIN32\IKCONSTRAINT.OBJ|C:\USERS\USER\DOCUMENTS\COCOSPROJECTS\SPACEINVADERS\COCOS2D\COCOS\EDITOR-SUPPORT\SPINE\PROJ.WIN32\DEBUG.WIN32\IKCONSTRAINTDATA.OBJ|C:\USERS\USER\DOCUMENTS\COCOSPROJECTS\SPACEINVADERS\COCOS2D\COCOS\EDITOR-SUPPORT\SPINE\PROJ.WIN32\DEBUG.WIN32\JSON.OBJ|C:\USERS\USER\DOCUMENTS\COCOSPROJECTS\SPACEINVADERS\COCOS2D\COCOS\EDITOR-SUPPORT\SPINE\PROJ.WIN32\DEBUG.WIN32\MESHATTACHMENT.OBJ|C:\USERS\USER\DOCUMENTS\COCOSPROJECTS\SPACEINVADERS\COCOS2D\COCOS\EDITOR-SUPPORT\SPINE\PROJ.WIN32\DEBUG.WIN32\PATHATTACHMENT.OBJ|C:\USERS\USER\DOCUMENTS\COCOSPROJECTS\SPACEINVADERS\COCOS2D\COCOS\EDITOR-SUPPORT\SPINE\PROJ.WIN32\DEBUG.WIN32\PATHCONSTRAINT.OBJ|C:\USERS\USER\DOCUMENTS\COCOSPROJECTS\SPACEINVADERS\COCOS2D\COCOS\EDITOR-SUPPORT\SPINE\PROJ.WIN32\DEBUG.WIN32\PATHCONSTRAINTDATA.OBJ|C:\USERS\USER\DOCUMENTS\COCOSPROJECTS\SPACEINVADERS\COCOS2D\COCOS\EDITOR-SUPPORT\SPINE\PROJ.WIN32\DEBUG.WIN32\REGIONATTACHMENT.OBJ|C:\USERS\USER\DOCUMENTS\COCOSPROJECTS\SPACEINVADERS\COCOS2D\COCOS\EDITOR-SUPPORT\SPINE\PROJ.WIN32\DEBUG.WIN32\SKELETON.OBJ|C:\USERS\USER\DOCUMENTS\COCOSPROJECTS\SPACEINVADERS\COCOS2D\COCOS\EDITOR-SUPPORT\SPINE\PROJ.WIN32\DEBUG.WIN32\SKELETONANIMATION.OBJ|C:\USERS\USER\DOCUMENTS\COCOSPROJECTS\SPACEINVADERS\COCOS2D\COCOS\EDITOR-SUPPORT\SPINE\PROJ.WIN32\DEBUG.WIN32\SKELETONBATCH.OBJ|C:\USERS\USER\DOCUMENTS\COCOSPROJECTS\SPACEINVADERS\COCOS2D\COCOS\EDITOR-SUPPORT\SPINE\PROJ.WIN32\DEBUG.WIN32\SKELETONBOUNDS.OBJ|C:\USERS\USER\DOCUMENTS\COCOSPROJECTS\SPACEINVADERS\COCOS2D\COCOS\EDITOR-SUPPORT\SPINE\PROJ.WIN32\DEBUG.WIN32\SKELETONDATA.OBJ|C:\USERS\USER\DOCUMENTS\COCOSPROJECTS\SPACEINVADERS\COCOS2D\COCOS\EDITOR-SUPPORT\SPINE\PROJ.WIN32\DEBUG.WIN32\SKELETONJSON.OBJ|C:\USERS\USER\DOCUMENTS\COCOSPROJECTS\SPACEINVADERS\COCOS2D\COCOS\EDITOR-SUPPORT\SPINE\PROJ.WIN32\DEBUG.WIN32\SKELETONRENDERER.OBJ|C:\USERS\USER\DOCUMENTS\COCOSPROJECTS\SPACEINVADERS\COCOS2D\COCOS\EDITOR-SUPPORT\SPINE\PROJ.WIN32\DEBUG.WIN32\SKIN.OBJ|C:\USERS\USER\DOCUMENTS\COCOSPROJECTS\SPACEINVADERS\COCOS2D\COCOS\EDITOR-SUPPORT\SPINE\PROJ.WIN32\DEBUG.WIN32\SLOT.OBJ|C:\USERS\USER\DOCUMENTS\COCOSPROJECTS\SPACEINVADERS\COCOS2D\COCOS\EDITOR-SUPPORT\SPINE\PROJ.WIN32\DEBUG.WIN32\SLOTDATA.OBJ|C:\USERS\USER\DOCUMENTS\COCOSPROJECTS\SPACEINVADERS\COCOS2D\COCOS\EDITOR-SUPPORT\SPINE\PROJ.WIN32\DEBUG.WIN32\SPINE-COCOS2DX.OBJ|C:\USERS\USER\DOCUMENTS\COCOSPROJECTS\SPACEINVADERS\COCOS2D\COCOS\EDITOR-SUPPORT\SPINE\PROJ.WIN32\DEBUG.WIN32\TRANSFORMCONSTRAINT.OBJ|C:\USERS\USER\DOCUMENTS\COCOSPROJECTS\SPACEINVADERS\COCOS2D\COCOS\EDITOR-SUPPORT\SPINE\PROJ.WIN32\DEBUG.WIN32\TRANSFORMCONSTRAINTDATA.OBJ|C:\USERS\USER\DOCUMENTS\COCOSPROJECTS\SPACEINVADERS\COCOS2D\COCOS\EDITOR-SUPPORT\SPINE\PROJ.WIN32\DEBUG.WIN32\VERTEXATTACHMENT.OBJ
C:\WINDOWS\GLOBALIZATION\SORTING\SORTDEFAULT.NLS
C:\USERS\USER\DOCUMENTS\COCOSPROJECTS\SPACEINVADERS\COCOS2D\COCOS\EDITOR-SUPPORT\SPINE\PROJ.WIN32\DEBUG.WIN32\ANIMATION.OBJ
C:\WINDOWS\SYSTEM32\TZRES.DLL
C:\USERS\USER\DOCUMENTS\COCOSPROJECTS\SPACEINVADERS\COCOS2D\COCOS\EDITOR-SUPPORT\SPINE\PROJ.WIN32\DEBUG.WIN32\ANIMATIONSTATE.OBJ
C:\USERS\USER\DOCUMENTS\COCOSPROJECTS\SPACEINVADERS\COCOS2D\COCOS\EDITOR-SUPPORT\SPINE\PROJ.WIN32\DEBUG.WIN32\ANIMATIONSTATEDATA.OBJ
C:\USERS\USER\DOCUMENTS\COCOSPROJECTS\SPACEINVADERS\COCOS2D\COCOS\EDITOR-SUPPORT\SPINE\PROJ.WIN32\DEBUG.WIN32\ATLAS.OBJ
C:\USERS\USER\DOCUMENTS\COCOSPROJECTS\SPACEINVADERS\COCOS2D\COCOS\EDITOR-SUPPORT\SPINE\PROJ.WIN32\DEBUG.WIN32\ATLASATTACHMENTLOADER.OBJ
C:\USERS\USER\DOCUMENTS\COCOSPROJECTS\SPACEINVADERS\COCOS2D\COCOS\EDITOR-SUPPORT\SPINE\PROJ.WIN32\DEBUG.WIN32\ATTACHMENT.OBJ
C:\USERS\USER\DOCUMENTS\COCOSPROJECTS\SPACEINVADERS\COCOS2D\COCOS\EDITOR-SUPPORT\SPINE\PROJ.WIN32\DEBUG.WIN32\ATTACHMENTLOADER.OBJ
C:\USERS\USER\DOCUMENTS\COCOSPROJECTS\SPACEINVADERS\COCOS2D\COCOS\EDITOR-SUPPORT\SPINE\PROJ.WIN32\DEBUG.WIN32\ATTACHMENTVERTICES.OBJ
C:\USERS\USER\DOCUMENTS\COCOSPROJECTS\SPACEINVADERS\COCOS2D\COCOS\EDITOR-SUPPORT\SPINE\PROJ.WIN32\DEBUG.WIN32\BONE.OBJ
C:\USERS\USER\DOCUMENTS\COCOSPROJECTS\SPACEINVADERS\COCOS2D\COCOS\EDITOR-SUPPORT\SPINE\PROJ.WIN32\DEBUG.WIN32\BONEDATA.OBJ
C:\USERS\USER\DOCUMENTS\COCOSPROJECTS\SPACEINVADERS\COCOS2D\COCOS\EDITOR-SUPPORT\SPINE\PROJ.WIN32\DEBUG.WIN32\BOUNDINGBOXATTACHMENT.OBJ
C:\USERS\USER\DOCUMENTS\COCOSPROJECTS\SPACEINVADERS\COCOS2D\COCOS\EDITOR-SUPPORT\SPINE\PROJ.WIN32\DEBUG.WIN32\COCOS2DATTACHMENTLOADER.OBJ
C:\USERS\USER\DOCUMENTS\COCOSPROJECTS\SPACEINVADERS\COCOS2D\COCOS\EDITOR-SUPPORT\SPINE\PROJ.WIN32\DEBUG.WIN32\EVENT.OBJ
C:\USERS\USER\DOCUMENTS\COCOSPROJECTS\SPACEINVADERS\COCOS2D\COCOS\EDITOR-SUPPORT\SPINE\PROJ.WIN32\DEBUG.WIN32\EVENTDATA.OBJ
C:\USERS\USER\DOCUMENTS\COCOSPROJECTS\SPACEINVADERS\COCOS2D\COCOS\EDITOR-SUPPORT\SPINE\PROJ.WIN32\DEBUG.WIN32\EXTENSION.OBJ
C:\USERS\USER\DOCUMENTS\COCOSPROJECTS\SPACEINVADERS\COCOS2D\COCOS\EDITOR-SUPPORT\SPINE\PROJ.WIN32\DEBUG.WIN32\IKCONSTRAINT.OBJ
C:\USERS\USER\DOCUMENTS\COCOSPROJECTS\SPACEINVADERS\COCOS2D\COCOS\EDITOR-SUPPORT\SPINE\PROJ.WIN32\DEBUG.WIN32\IKCONSTRAINTDATA.OBJ
C:\USERS\USER\DOCUMENTS\COCOSPROJECTS\SPACEINVADERS\COCOS2D\COCOS\EDITOR-SUPPORT\SPINE\PROJ.WIN32\DEBUG.WIN32\JSON.OBJ
C:\USERS\USER\DOCUMENTS\COCOSPROJECTS\SPACEINVADERS\COCOS2D\COCOS\EDITOR-SUPPORT\SPINE\PROJ.WIN32\DEBUG.WIN32\MESHATTACHMENT.OBJ
C:\USERS\USER\DOCUMENTS\COCOSPROJECTS\SPACEINVADERS\COCOS2D\COCOS\EDITOR-SUPPORT\SPINE\PROJ.WIN32\DEBUG.WIN32\PATHATTACHMENT.OBJ
C:\USERS\USER\DOCUMENTS\COCOSPROJECTS\SPACEINVADERS\COCOS2D\COCOS\EDITOR-SUPPORT\SPINE\PROJ.WIN32\DEBUG.WIN32\PATHCONSTRAINT.OBJ
C:\USERS\USER\DOCUMENTS\COCOSPROJECTS\SPACEINVADERS\COCOS2D\COCOS\EDITOR-SUPPORT\SPINE\PROJ.WIN32\DEBUG.WIN32\PATHCONSTRAINTDATA.OBJ
C:\USERS\USER\DOCUMENTS\COCOSPROJECTS\SPACEINVADERS\COCOS2D\COCOS\EDITOR-SUPPORT\SPINE\PROJ.WIN32\DEBUG.WIN32\REGIONATTACHMENT.OBJ
C:\USERS\USER\DOCUMENTS\COCOSPROJECTS\SPACEINVADERS\COCOS2D\COCOS\EDITOR-SUPPORT\SPINE\PROJ.WIN32\DEBUG.WIN32\SKELETON.OBJ
C:\USERS\USER\DOCUMENTS\COCOSPROJECTS\SPACEINVADERS\COCOS2D\COCOS\EDITOR-SUPPORT\SPINE\PROJ.WIN32\DEBUG.WIN32\SKELETONANIMATION.OBJ
C:\USERS\USER\DOCUMENTS\COCOSPROJECTS\SPACEINVADERS\COCOS2D\COCOS\EDITOR-SUPPORT\SPINE\PROJ.WIN32\DEBUG.WIN32\SKELETONBATCH.OBJ
C:\USERS\USER\DOCUMENTS\COCOSPROJECTS\SPACEINVADERS\COCOS2D\COCOS\EDITOR-SUPPORT\SPINE\PROJ.WIN32\DEBUG.WIN32\SKELETONBOUNDS.OBJ
C:\USERS\USER\DOCUMENTS\COCOSPROJECTS\SPACEINVADERS\COCOS2D\COCOS\EDITOR-SUPPORT\SPINE\PROJ.WIN32\DEBUG.WIN32\SKELETONDATA.OBJ
C:\USERS\USER\DOCUMENTS\COCOSPROJECTS\SPACEINVADERS\COCOS2D\COCOS\EDITOR-SUPPORT\SPINE\PROJ.WIN32\DEBUG.WIN32\SKELETONJSON.OBJ
C:\USERS\USER\DOCUMENTS\COCOSPROJECTS\SPACEINVADERS\COCOS2D\COCOS\EDITOR-SUPPORT\SPINE\PROJ.WIN32\DEBUG.WIN32\SKELETONRENDERER.OBJ
C:\USERS\USER\DOCUMENTS\COCOSPROJECTS\SPACEINVADERS\COCOS2D\COCOS\EDITOR-SUPPORT\SPINE\PROJ.WIN32\DEBUG.WIN32\SKIN.OBJ
C:\USERS\USER\DOCUMENTS\COCOSPROJECTS\SPACEINVADERS\COCOS2D\COCOS\EDITOR-SUPPORT\SPINE\PROJ.WIN32\DEBUG.WIN32\SLOT.OBJ
C:\USERS\USER\DOCUMENTS\COCOSPROJECTS\SPACEINVADERS\COCOS2D\COCOS\EDITOR-SUPPORT\SPINE\PROJ.WIN32\DEBUG.WIN32\SLOTDATA.OBJ
C:\USERS\USER\DOCUMENTS\COCOSPROJECTS\SPACEINVADERS\COCOS2D\COCOS\EDITOR-SUPPORT\SPINE\PROJ.WIN32\DEBUG.WIN32\SPINE-COCOS2DX.OBJ
C:\USERS\USER\DOCUMENTS\COCOSPROJECTS\SPACEINVADERS\COCOS2D\COCOS\EDITOR-SUPPORT\SPINE\PROJ.WIN32\DEBUG.WIN32\TRANSFORMCONSTRAINT.OBJ
C:\USERS\USER\DOCUMENTS\COCOSPROJECTS\SPACEINVADERS\COCOS2D\COCOS\EDITOR-SUPPORT\SPINE\PROJ.WIN32\DEBUG.WIN32\TRANSFORMCONSTRAINTDATA.OBJ
C:\USERS\USER\DOCUMENTS\COCOSPROJECTS\SPACEINVADERS\COCOS2D\COCOS\EDITOR-SUPPORT\SPINE\PROJ.WIN32\DEBUG.WIN32\VERTEXATTACHMENT.OBJ
